{
	"info": {
		"_postman_id": "30a9373b-e47a-40be-90fb-9e3dfc4d42cc",
		"name": "PruebasApi",
		"schema": "https://schema.getpostman.com/json/collection/v2.1.0/collection.json"
	},
	"item": [
		{
			"name": "ConsultarCategorias",
			"request": {
				"method": "GET",
				"header": [
					{
						"key": "categories_header",
						"value": "categories_header",
						"type": "text"
					}
				],
				"url": {
					"raw": "http://localhost:8080/",
					"protocol": "http",
					"host": [
						"localhost"
					],
					"port": "8080",
					"path": [
						""
					],
					"query": [
						{
							"key": "",
							"value": "",
							"disabled": true
						}
					]
				}
			},
			"response": []
		},
		{
			"name": "ConsultarCategorias_Post",
			"request": {
				"method": "POST",
				"header": [
					{
						"key": "categories_header",
						"value": "categories_header",
						"type": "text"
					}
				],
				"url": {
					"raw": "http://localhost:8080/",
					"protocol": "http",
					"host": [
						"localhost"
					],
					"port": "8080",
					"path": [
						""
					],
					"query": [
						{
							"key": "",
							"value": "",
							"disabled": true
						}
					]
				}
			},
			"response": []
		},
		{
			"name": "ConsultarCategorias_InvalidHeader",
			"request": {
				"method": "GET",
				"header": [
					{
						"key": "categories",
						"value": "categories",
						"type": "text"
					}
				],
				"url": {
					"raw": "http://localhost:8080/",
					"protocol": "http",
					"host": [
						"localhost"
					],
					"port": "8080",
					"path": [
						""
					],
					"query": [
						{
							"key": "",
							"value": "",
							"disabled": true
						}
					]
				}
			},
			"response": []
		},
		{
			"name": "ConsultarProductos",
			"request": {
				"method": "GET",
				"header": [
					{
						"key": "products_header",
						"value": "products_header",
						"type": "text"
					}
				],
				"url": {
					"raw": "http://localhost:8080/product_list/",
					"protocol": "http",
					"host": [
						"localhost"
					],
					"port": "8080",
					"path": [
						"product_list",
						""
					]
				}
			},
			"response": []
		},
		{
			"name": "ConsultarProductos_Post",
			"request": {
				"method": "POST",
				"header": [
					{
						"key": "products_header",
						"value": "products_header",
						"type": "text"
					}
				],
				"url": {
					"raw": "http://localhost:8080/product_list/",
					"protocol": "http",
					"host": [
						"localhost"
					],
					"port": "8080",
					"path": [
						"product_list",
						""
					]
				}
			},
			"response": []
		},
		{
			"name": "ConsultarProductos_InvalidHeader",
			"request": {
				"method": "GET",
				"header": [
					{
						"key": "products",
						"value": "products",
						"type": "text"
					}
				],
				"url": {
					"raw": "http://localhost:8080/product_list/",
					"protocol": "http",
					"host": [
						"localhost"
					],
					"port": "8080",
					"path": [
						"product_list",
						""
					]
				}
			},
			"response": []
		},
		{
			"name": "CrearProducto",
			"request": {
				"method": "POST",
				"header": [
					{
						"key": "add_product_header",
						"value": "add_product_header",
						"type": "text"
					}
				],
				"body": {
					"mode": "raw",
					"raw": "\r\n{\r\n    \"sku\": \"abc-121\",\r\n    \"name\": \"Zapatillas Deportivas\",\r\n    \"price\": 100.6,\r\n    \"urlImage\": \"http://apatillas_deportivas\",\r\n    \"categoryId\": 4\r\n}",
					"options": {
						"raw": {
							"language": "json"
						}
					}
				},
				"url": {
					"raw": "http://localhost:8080/product",
					"protocol": "http",
					"host": [
						"localhost"
					],
					"port": "8080",
					"path": [
						"product"
					]
				}
			},
			"response": []
		},
		{
			"name": "CrearProducto_SKUExist",
			"request": {
				"method": "POST",
				"header": [
					{
						"key": "add_product_header",
						"value": "add_product_header",
						"type": "text"
					}
				],
				"body": {
					"mode": "raw",
					"raw": "\r\n{\r\n    \"sku\": \"abc-126\",\r\n    \"name\": \"Zapatillas Deportivas\",\r\n    \"price\": 100.6,\r\n    \"urlImage\": \"http://apatillas_deportivas\",\r\n    \"categoryId\": 4\r\n}",
					"options": {
						"raw": {
							"language": "json"
						}
					}
				},
				"url": {
					"raw": "http://localhost:8080/product",
					"protocol": "http",
					"host": [
						"localhost"
					],
					"port": "8080",
					"path": [
						"product"
					]
				}
			},
			"response": []
		},
		{
			"name": "CrearProducto_CategoryNotExist",
			"request": {
				"method": "POST",
				"header": [
					{
						"key": "add_product_header",
						"value": "add_product_header",
						"type": "text"
					}
				],
				"body": {
					"mode": "raw",
					"raw": "\r\n{\r\n    \"sku\": \"abc-121\",\r\n    \"name\": \"Zapatillas Deportivas\",\r\n    \"price\": 100.6,\r\n    \"urlImage\": \"http://apatillas_deportivas\",\r\n    \"categoryId\": 5\r\n}",
					"options": {
						"raw": {
							"language": "json"
						}
					}
				},
				"url": {
					"raw": "http://localhost:8080/product",
					"protocol": "http",
					"host": [
						"localhost"
					],
					"port": "8080",
					"path": [
						"product"
					]
				}
			},
			"response": []
		},
		{
			"name": "CrearProducto_Get",
			"protocolProfileBehavior": {
				"disableBodyPruning": true
			},
			"request": {
				"method": "GET",
				"header": [
					{
						"key": "add_product_header",
						"value": "add_product_header",
						"type": "text"
					}
				],
				"body": {
					"mode": "raw",
					"raw": "\r\n{\r\n    \"sku\": \"abc-121\",\r\n    \"name\": \"Zapatillas Deportivas\",\r\n    \"price\": 100.6,\r\n    \"urlImage\": \"http://apatillas_deportivas\",\r\n    \"categoryId\": 4\r\n}",
					"options": {
						"raw": {
							"language": "json"
						}
					}
				},
				"url": {
					"raw": "http://localhost:8080/product",
					"protocol": "http",
					"host": [
						"localhost"
					],
					"port": "8080",
					"path": [
						"product"
					]
				}
			},
			"response": []
		},
		{
			"name": "CrearProducto_InvalidHeader",
			"request": {
				"method": "POST",
				"header": [
					{
						"key": "add_product",
						"value": "add_product",
						"type": "text"
					}
				],
				"body": {
					"mode": "raw",
					"raw": "\r\n{\r\n    \"sku\": \"abc-121\",\r\n    \"name\": \"Zapatillas Deportivas\",\r\n    \"price\": 100.6,\r\n    \"urlImage\": \"http://apatillas_deportivas\",\r\n    \"categoryId\": 4\r\n}",
					"options": {
						"raw": {
							"language": "json"
						}
					}
				},
				"url": {
					"raw": "http://localhost:8080/product",
					"protocol": "http",
					"host": [
						"localhost"
					],
					"port": "8080",
					"path": [
						"product"
					]
				}
			},
			"response": []
		}
	]
}